Making proper trend graphs • rOpenSci: europepmc
…
By default, synonym search is disabled and only Medline/PubMed index is searched.

Use Cases

Use Case: Growth of Open Access Literature

There is a growing interest in knowing the proportion of open access to scholarly literature. Europe PMC allows searching for open access content with the OPEN_ACCESS:Y parameter. At the moment, Europe PMC contains 3,653,451 open access full-texts. Let’s see how they are relatively distributed over the period 1995 - 2016.

tt_oa <- europepmc::epmc_hits_trend("OPEN_ACCESS:Y", period = 1995:2016, synonym = FALSE)
tt_oa
#> # A tibble: 22 x 3
#>     year all_hits query_hits
#>    <int>    <dbl>      <dbl>
#>  1  1995   449004       3337
#>  2  1996   458526       3508
#>  3  1997   456744       3664
#>  4  1998   474613       3836
#>  5  1999   493680       3917
#>  6  2000   532020       4328
#>  7  2001   545674       5479
#>  8  2002   561424       5894
#>  9  2003   588571       7148
#> 10  2004   628141       9794
#> # … with 12 more rows
…
and get publications for which Europe PMC gives access to reference lists for normalizing the review graph.

library(dplyr)
my_df <- purrr::map_df(dvcs_query, function(x) {
  # get number of publications with indexed reference lists
  refs_hits <- 
    europepmc::epmc_hits_trend("has_reflist:y", period = 2009:2016, synonym = FALSE)$query_hits
  # get hit count querying for code repositories 
  europepmc::epmc_hits_trend(x, period = 2009:2016, synonym = FALSE) %>% 
    dplyr::mutate(query_id = x) %>%
    dplyr::mutate(refs_hits = refs_hits) %>%
    dplyr::select(year, all_hits, refs_hits, query_hits, query_id)
}) 
my_df
#> # A tibble: 40 x 5
#>     year all_hits refs_hits query_hits query_id                 
#>    <int>    <dbl>     <dbl>      <dbl> <chr>                    
#>  1  2009   793062    555469         13 "REF:\"code.google.com\""
#>  2  2010   851016    540508         40 "REF:\"code.google.com\""
#>  3  2011   904605    603046         65 "REF:\"code.google.com\""
#>  4  2012   945898    635435         92 "REF:\"code.google.com\""
#>  5  2013  1003836    761497        135 "REF:\"code.google.com\""
#>  6  2014  1055418    797019        140 "REF:\"code.google.com\""
#>  7  2015  1095829    779518        117 "REF:\"code.google.com\""
#>  8  2016  1116098    782560         65 "REF:\"code.google.com\""
#>  9  2009   793062    555469          2 "REF:\"github.com\""     
#> 10  2010   851016    540508         10 "REF:\"github.com\""     
#> # … with 30 more rows
…
