Introducing europepmc, an R interface to Europe PMC RESTful API • rOpenSci: europepmc
…
Levchenko, M., Gou, Y., Graef, F., Hamelers, A., Huang, Z., Ide-Smith, M., … McEntyre, J. (2017). Europe PMC in 2017. Nucleic Acids Research, 46(D1), D1254–D1260. https://doi.org/10.1093/nar/gkx1005

How to search Europe PMC with R?

This client supports the Europe PMC search syntax. If you are unfamiliar with searching Europe PMC, check out the Europe PMC query builder, a very nice tool that helps you to build queries. To make use of Europe PMC queries in R, copy & paste the search string to the search functions of this package.

In the following, some examples demonstrate how to search Europe PMC with R.

Free search

empc_search() is the main function to query Europe PMC. It searches both metadata and fulltexts.

library(europepmc)
europepmc::epmc_search('malaria')
#> # A tibble: 100 x 29
#>    id     source pmid  doi   title authorString journalTitle issue journalVolume
#>    <chr>  <chr>  <chr> <chr> <chr> <chr>        <chr>        <chr> <chr>        
#>  1 34100… MED    3410… 10.4… New … Lima MN, Ba… Neural Rege… 1     17           
#>  2 33341… MED    3334… 10.1… Trip… Wang J, Xu … Lancet       10267 396          
#>  3 33341… MED    3334… 10.1… Trip… van der Plu… Lancet       10267 396          
#>  4 33535… MED    3353… 10.3… THE … Damiani E, … Acta Med Hi… 2     18           
#>  5 33530… MED    3353… 10.1… Disc… Hoarau M, V… J Enzyme In… 1     36           
#>  6 33372… MED    3337… 10.1… ATP2… Lamy A, Mac… Emerg Micro… 1     10           
#>  7 33594… MED    3359… 10.1… Mana… Kambale-Kom… Hematology   1     26           
#>  8 33095… MED    3309… 10.1… Hydr… Bansal P, G… Ann Med      1     53           
#>  9 34230… MED    3423… 10.1… Mala… Tchoumi SY,… Appl Math M… <NA>  <NA>         
#> 10 34216… MED    3421… 10.1… The … Andronescu … J Infect Dis <NA>  <NA>         
#> # … with 90 more rows, and 20 more variables: pubYear <chr>, journalIssn <chr>,
#> #   pageInfo <chr>, pubType <chr>, isOpenAccess <chr>, inEPMC <chr>,
#> #   inPMC <chr>, hasPDF <chr>, hasBook <chr>, hasSuppl <chr>,
#> #   citedByCount <int>, hasReferences <chr>, hasTextMinedTerms <chr>,
#> #   hasDbCrossReferences <chr>, hasLabsLinks <chr>,
#> #   hasTMAccessionNumbers <chr>, firstIndexDate <chr>,
#> #   firstPublicationDate <chr>, pmcid <chr>, versionNumber <int>

It is worth noting that Europe PMC expands queries with MeSH synonyms by default, a behavior which can be turned off with the synonym parameter.

europepmc::epmc_search('malaria', synonym = FALSE)
#> # A tibble: 100 x 28
#>    id     source pmid  doi   title authorString journalTitle issue journalVolume
#>    <chr>  <chr>  <chr> <chr> <chr> <chr>        <chr>        <chr> <chr>        
#>  1 33341… MED    3334… 10.1… Trip… Wang J, Xu … Lancet       10267 396          
#>  2 33341… MED    3334… 10.1… Trip… van der Plu… Lancet       10267 396          
#>  3 34100… MED    3410… 10.4… New … Lima MN, Ba… Neural Rege… 1     17           
#>  4 33530… MED    3353… 10.1… Disc… Hoarau M, V… J Enzyme In… 1     36           
#>  5 33594… MED    3359… 10.1… Mana… Kambale-Kom… Hematology   1     26           
#>  6 34216… MED    3421… 10.1… The … Andronescu … J Infect Dis <NA>  <NA>         
#>  7 34233… MED    3423… 10.1… Soci… Mohan I, Ko… Malar J      1     20           
#>  8 34230… MED    3423… 10.1… Mala… Tchoumi SY,… Appl Math M… <NA>  <NA>         
#>  9 34218… MED    3421… 10.1… Mala… Belay B, Ge… Trop Dis Tr… 1     7            
#> 10 PMC82… PMC    <NA>  <NA>  Chal… Kant R, Yad… J Infect Pu… <NA>  <NA>         
#> # … with 90 more rows, and 19 more variables: pubYear <chr>, journalIssn <chr>,
#> #   pageInfo <chr>, pubType <chr>, isOpenAccess <chr>, inEPMC <chr>,
#> #   inPMC <chr>, hasPDF <chr>, hasBook <chr>, hasSuppl <chr>,
#> #   citedByCount <int>, hasReferences <chr>, hasTextMinedTerms <chr>,
#> #   hasDbCrossReferences <chr>, hasLabsLinks <chr>,
#> #   hasTMAccessionNumbers <chr>, firstIndexDate <chr>,
#> #   firstPublicationDate <chr>, pmcid <chr>

To get an exact match, use quotes as in the following example:

europepmc::epmc_search('"Human malaria parasites"')
#> # A tibble: 100 x 29
#>    id     source pmid   doi    title   authorString   journalTitle journalVolume
#>    <chr>  <chr>  <chr>  <chr>  <chr>   <chr>          <chr>        <chr>        
#>  1 34087… MED    34087… 10.10… Divers… Goh XT, Lim Y… Mol Biochem… 244          
#>  2 33789… MED    33789… 10.11… Additi… Kwon H, Simõe… mSphere      6            
#>  3 34211… MED    34211… <NA>   An Eco… Clark NF, Tay… Yale J Biol… 94           
#>  4 32470… MED    32470… 10.10… C-term… Kimata-Ariga … J Biochem    168          
#>  5 PPR35… PPR    <NA>   10.11… 5-meth… Liu M, Guo G,… <NA>         <NA>         
#>  6 PPR34… PPR    <NA>   10.11… Differ… Tsapi MT, Kor… <NA>         <NA>         
#>  7 33797… MED    33797… 10.47… Compli… Mat Salleh NH… Trop Biomed  38           
#>  8 PPR27… PPR    <NA>   10.21… Stocha… Tripathi J, Z… <NA>         <NA>         
#>  9 33452… MED    33452… 10.10… In-dep… Hamada S, Pio… Proteomics   21           
#> 10 PPR27… PPR    <NA>   10.21… Five Y… Hulluka TF, C… <NA>         <NA>         
#> # … with 90 more rows, and 21 more variables: pubYear <chr>, journalIssn <chr>,
#> #   pageInfo <chr>, pubType <chr>, isOpenAccess <chr>, inEPMC <chr>,
#> #   inPMC <chr>, hasPDF <chr>, hasBook <chr>, hasSuppl <chr>,
#> #   citedByCount <int>, hasReferences <chr>, hasTextMinedTerms <chr>,
#> #   hasDbCrossReferences <chr>, hasLabsLinks <chr>,
#> #   hasTMAccessionNumbers <chr>, firstIndexDate <chr>,
#> #   firstPublicationDate <chr>, issue <chr>, pmcid <chr>, versionNumber <int>
…
Europe PMC Advanced Search has a auto-suggest field for author names if you feel unsure how the name you are searching for is indexed in Europe PMC. Using the Boolean OR operator allows searching for more than one spelling variant:

q <- 'AUTH:"PÜHLER Alfred" OR AUTH:"Pühler Alfred Prof. Dr." OR AUTH:"Puhler A"'
europepmc::epmc_search(q, limit = 1000)
#> # A tibble: 588 x 29
#>    id     source pmid   pmcid doi    title    authorString    journalTitle issue
#>    <chr>  <chr>  <chr>  <chr> <chr>  <chr>    <chr>           <chr>        <chr>
#>  1 34040… MED    34040… PMC8… 10.10… Swarm L… Warnat-Herrest… Nature       7862 
#>  2 33643… MED    33643… PMC7… 10.33… Exopoly… Castellani LG,… Front Plant… <NA> 
#>  3 33589… MED    33589… <NA>  10.10… Impleme… Mayer G, Mülle… Brief Bioin… <NA> 
#>  4 33441… MED    33441… PMC7… 10.11… Disease… Aschenbrenner … Genome Med   1    
#>  5 PPR26… PPR    <NA>   <NA>  10.21… The exp… Droste J, Orts… <NA>         <NA> 
#>  6 33348… MED    33348… PMC7… 10.33… The Rol… Maus I, Tubbes… Microorgani… 12   
#>  7 33296… MED    33296… PMC7… 10.10… Longitu… Bernardes JP, … Immunity     6    
#>  8 33220… MED    33220… <NA>  10.10… Global … Nilsson JF, Ca… FEMS Microb… 1    
#>  9 33225… MED    33225… PMC7… 10.11… The exp… Droste J, Orts… BMC Genomics 1    
#> 10 32989… MED    32989… PMC7… 10.10… A malto… Droste J, Kuli… Appl Microb… 21   
#> # … with 578 more rows, and 20 more variables: journalVolume <chr>,
#> #   pubYear <chr>, journalIssn <chr>, pageInfo <chr>, pubType <chr>,
#> #   isOpenAccess <chr>, inEPMC <chr>, inPMC <chr>, hasPDF <chr>, hasBook <chr>,
#> #   hasSuppl <chr>, citedByCount <int>, hasReferences <chr>,
#> #   hasTextMinedTerms <chr>, hasDbCrossReferences <chr>, hasLabsLinks <chr>,
#> #   hasTMAccessionNumbers <chr>, firstIndexDate <chr>,
#> #   firstPublicationDate <chr>, versionNumber <int>

There is a considerable overlap between common names. The integration of ORCID, a persistent author identifier, allows unambiguous search for personal publications in Europe PMC. For example, here’s how to search for publications written by Bernd Weisshaar (ORCID: https://orcid.org/0000-0002-7635-3473) sorted by the number of times cited in descending order:

europepmc::epmc_search('AUTHORID:"0000-0002-7635-3473"', limit = 200, sort = "cited")
#> # A tibble: 151 x 28
#>    id     source pmid  doi   title authorString journalTitle issue journalVolume
#>    <chr>  <chr>  <chr> <chr> <chr> <chr>        <chr>        <chr> <chr>        
#>  1 21873… MED    2187… 10.1… The … Wang X, Wan… Nat Genet    10    43           
#>  2 20674… MED    2067… 10.1… MYB … Dubos C, St… Trends Plan… 10    15           
#>  3 11597… MED    1159… 10.1… The … Stracke R, … Curr Opin P… 5     4            
#>  4 11906… MED    1190… 10.1… bZIP… Jakoby M, W… Trends Plan… 3     7            
#>  5 14756… MED    1475… 10.1… An A… Rosso MG, L… Plant Mol B… 1-2   53           
#>  6 12679… MED    1267… 10.1… The … Heim MA, Ja… Mol Biol Ev… 5     20           
#>  7 11080… MED    1108… 10.1… Tran… Jin H, Comi… EMBO J       22    19           
#>  8 15361… MED    1536… 10.1… Comp… Zimmermann … Plant J      1     40           
#>  9 15255… MED    1525… 10.1… TT2,… Baudry A, H… Plant J      3     39           
#> 10 17419… MED    1741… 10.1… Diff… Stracke R, … Plant J      4     50           
#> # … with 141 more rows, and 19 more variables: pubYear <chr>,
#> #   journalIssn <chr>, pageInfo <chr>, pubType <chr>, isOpenAccess <chr>,
#> #   inEPMC <chr>, inPMC <chr>, hasPDF <chr>, hasBook <chr>, hasSuppl <chr>,
#> #   citedByCount <int>, hasReferences <chr>, hasTextMinedTerms <chr>,
#> #   hasDbCrossReferences <chr>, hasLabsLinks <chr>,
#> #   hasTMAccessionNumbers <chr>, firstIndexDate <chr>,
#> #   firstPublicationDate <chr>, pmcid <chr>

Annotations

Europe PMC provides text-mined annotations contained in abstracts and open access full-text articles.

These automatically identified concepts and term can be retrieved at the article-level:

europepmc::epmc_annotations_by_id(c("MED:28585529", "PMC:PMC1664601"))
#> # A tibble: 774 x 13
#>    source ext_id  pmcid  prefix  exact  postfix name  uri   id     type  section
#>    <chr>  <chr>   <chr>  <chr>   <chr>  <chr>   <chr> <chr> <chr>  <chr> <chr>  
#>  1 MED    285855… PMC54… "tive … Beta … " allo… Beta… http… http:… Clin… Title …
#>  2 MED    285855… PMC54… "nomic… genes  ".\nRa… gene  http… http:… Sequ… Title …
#>  3 MED    285855… PMC54… "nomic… genes  " is o… gene  http… http:… Sequ… Abstra…
#>  4 MED    285855… PMC54… " One … genes  " are … gene  http… http:… Sequ… Abstra…
#>  5 MED    285855… PMC54… " iden… beet   " (Bet… Beta… http… http:… Clin… Abstra…
#>  6 MED    285855… PMC54… "ify t… Beta … " ssp.… Beta… http… http:… Clin… Abstra…
#>  7 MED    285855… PMC54… "ulgar… gene   " Rz2 … gene  http… http:… Sequ… Abstra…
#>  8 MED    285855… PMC54… "e gen… genome " sequ… geno… http… http:… Sequ… Abstra…
#>  9 MED    285855… PMC54… "equen… beet   ". Our… Beta… http… http:… Clin… Abstra…
#> 10 MED    285855… PMC54… "disco… genes  " rele… gene  http… http:… Sequ… Abstra…
#> # … with 764 more rows, and 2 more variables: provider <chr>, subType <chr>

To obtain a list of articles where Europe PMC has text-minded annotations, either subset the resulting data.frame

tt <- epmc_search("malaria")
tt[tt$hasTextMinedTerms == "Y" | tt$hasTMAccessionNumbers == "Y",]
#> # A tibble: 98 x 29
#>    id     source pmid  doi   title authorString journalTitle issue journalVolume
#>    <chr>  <chr>  <chr> <chr> <chr> <chr>        <chr>        <chr> <chr>        
#>  1 34100… MED    3410… 10.4… New … Lima MN, Ba… Neural Rege… 1     17           
#>  2 33535… MED    3353… 10.3… THE … Damiani E, … Acta Med Hi… 2     18           
#>  3 33530… MED    3353… 10.1… Disc… Hoarau M, V… J Enzyme In… 1     36           
#>  4 33372… MED    3337… 10.1… ATP2… Lamy A, Mac… Emerg Micro… 1     10           
#>  5 33594… MED    3359… 10.1… Mana… Kambale-Kom… Hematology   1     26           
#>  6 33095… MED    3309… 10.1… Hydr… Bansal P, G… Ann Med      1     53           
#>  7 34230… MED    3423… 10.1… Mala… Tchoumi SY,… Appl Math M… <NA>  <NA>         
#>  8 34216… MED    3421… 10.1… The … Andronescu … J Infect Dis <NA>  <NA>         
#>  9 34218… MED    3421… 10.1… Mala… Belay B, Ge… Trop Dis Tr… 1     7            
#> 10 32507… MED    3250… 10.1… Iron… Bundi CK, N… Clin Infect… 1     73           
#> # … with 88 more rows, and 20 more variables: pubYear <chr>, journalIssn <chr>,
#> #   pageInfo <chr>, pubType <chr>, isOpenAccess <chr>, inEPMC <chr>,
#> #   inPMC <chr>, hasPDF <chr>, hasBook <chr>, hasSuppl <chr>,
#> #   citedByCount <int>, hasReferences <chr>, hasTextMinedTerms <chr>,
#> #   hasDbCrossReferences <chr>, hasLabsLinks <chr>,
#> #   hasTMAccessionNumbers <chr>, firstIndexDate <chr>,
#> #   firstPublicationDate <chr>, pmcid <chr>, versionNumber <int>

or expand the query choosing an annotation type or provider from the Europe PMC Advanced Search query builder.

epmc_search('malaria AND (ANNOTATION_TYPE:"Cell") AND (ANNOTATION_PROVIDER:"Europe PMC")')
#> # A tibble: 100 x 28
#>    id     source pmid   pmcid doi    title    authorString    journalTitle issue
#>    <chr>  <chr>  <chr>  <chr> <chr>  <chr>    <chr>           <chr>        <chr>
#>  1 31782… MED    31782… PMC7… 10.10… Increas… Jongo SA, Chur… Clin Infect… 11   
#>  2 31808… MED    31808… PMC7… 10.10… Retinop… Villaverde C, … J Pediatric… 5    
#>  3 30989… MED    30989… PMC7… 10.10… Clinica… Enane LA, Sull… J Pediatric… 3    
#>  4 31300… MED    31300… PMC7… 10.10… Blackwa… Opoka RO, Wais… Clin Infect… 11   
#>  5 31505… MED    31505… <NA>  10.10… Acute K… Oshomah-Bello … J Trop Pedi… 2    
#>  6 31807… MED    31807… <NA>  10.10… Malaria… Marcombe S, Th… J Med Entom… 3    
#>  7 31687… MED    31687… <NA>  10.10… Evaluat… Ferdinand DY, … Trans R Soc… 3    
#>  8 31693… MED    31693… PMC7… 10.10… Reduced… Kingston HWF, … J Infect Dis 9    
#>  9 31679… MED    31679… <NA>  10.10… A Syste… Thiengsusuk A,… Eur J Drug … 2    
#> 10 31843… MED    31843… PMC6… 10.11… Artenim… Pull L, Lupogl… Malar J      1    
#> # … with 90 more rows, and 19 more variables: journalVolume <chr>,
#> #   pubYear <chr>, journalIssn <chr>, pageInfo <chr>, pubType <chr>,
#> #   isOpenAccess <chr>, inEPMC <chr>, inPMC <chr>, hasPDF <chr>, hasBook <chr>,
#> #   hasSuppl <chr>, citedByCount <int>, hasReferences <chr>,
#> #   hasTextMinedTerms <chr>, hasDbCrossReferences <chr>, hasLabsLinks <chr>,
#> #   hasTMAccessionNumbers <chr>, firstIndexDate <chr>,
#> #   firstPublicationDate <chr>

Data integrations

Another nice feature of Europe PMC is to search for cross-references between Europe PMC to other databases. For instance, to get publications cited by entries in the Protein Data bank in Europe published 2016:

europepmc::epmc_search('(HAS_PDB:y) AND FIRST_PDATE:2016')
#> # A tibble: 100 x 28
#>    id     source pmid  pmcid doi   title authorString journalTitle journalVolume
#>    <chr>  <chr>  <chr> <chr> <chr> <chr> <chr>        <chr>        <chr>        
#>  1 28073… MED    2807… PMC5… 10.1… PCNA… Wilson RH, … DNA Repair … 50           
#>  2 28035… MED    2803… PMC5… 10.1… Stru… Peng G, Yan… J Biol Chem  292          
#>  3 27990… MED    2799… <NA>  10.1… The … Choi JY, Ja… FEBS Lett    591          
#>  4 27990… MED    2799… <NA>  10.1… A fl… Wang C, Zen… FEBS Lett    591          
#>  5 28028… MED    2802… PMC5… 10.1… APE2… Wallace BD,… Proc Natl A… 114          
#>  6 28039… MED    2803… PMC5… 10.1… Stru… Su HP, Rick… Proc Natl A… 114          
#>  7 28036… MED    2803… PMC5… 10.1… Stru… Kovaľ T, Øs… PLoS One     11           
#>  8 27977… MED    2797… <NA>  10.1… Comp… De Deurwaer… ACS Chem Ne… 8            
#>  9 28011… MED    2801… PMC5… 10.1… Glyc… Mehta-D'sou… J Biol Chem  292          
#> 10 28009… MED    2800… PMC5… 10.7… Stru… Wilkinson M… Elife        5            
#> # … with 90 more rows, and 19 more variables: pubYear <chr>, journalIssn <chr>,
#> #   pageInfo <chr>, pubType <chr>, isOpenAccess <chr>, inEPMC <chr>,
#> #   inPMC <chr>, hasPDF <chr>, hasBook <chr>, hasSuppl <chr>,
#> #   citedByCount <int>, hasReferences <chr>, hasTextMinedTerms <chr>,
#> #   hasDbCrossReferences <chr>, hasLabsLinks <chr>,
#> #   hasTMAccessionNumbers <chr>, firstIndexDate <chr>,
#> #   firstPublicationDate <chr>, issue <chr>
…
PDB European resource for the collection, organisation and dissemination of data on biological macromolecular structures http://www.ebi.ac.uk/pdbe/

UNIPROT comprehensive and freely accessible resource of protein sequence and functional information http://www.uniprot.org/

PRIDE PRIDE Archive - proteomics data repository https://www.ebi.ac.uk/pride/archive/

To retrieve metadata about these external database links, use europepmc_epmc_db().

Citations and reference sections

Europe PMC let us also obtain citation metadata and reference sections. For retrieving citation metadata per article, use

europepmc::epmc_citations("9338777", limit = 500)
#> # A tibble: 233 x 11
#>    id     source citationType title authorString journalAbbrevia… pubYear volume
#>    <chr>  <chr>  <chr>        <chr> <chr>        <chr>              <int> <chr> 
#>  1 33353… MED    review-arti… Xeno… Galow AM, G… Int J Mol Sci       2020 21    
#>  2 31565… MED    research-ar… Regu… Chung HC, N… J Vet Sci           2019 20    
#>  3 30230… MED    research su… Bioe… Legallais C… Adv Healthc Mat…    2018 7     
#>  4 30264… MED    research su… Porc… Fiebig U, F… Xenotransplanta…    2018 25    
#>  5 29756… MED    historical … Infe… Weiss RA.    Xenotransplanta…    2018 25    
#>  6 29642… MED    research su… Trac… Kawasaki J,… Viruses             2018 10    
#>  7 28768… MED    research su… Pres… Kawasaki J,… J Virol             2017 91    
#>  8 28437… MED    research su… Thre… Colon-Moran… Virology            2017 507   
#>  9 28054… MED    research su… Anti… Inoue Y, Yo… Ann Biomed Eng      2017 45    
#> 10 27832… MED    research-ar… Tran… Kim N, Choi… PLoS One            2016 11    
#> # … with 223 more rows, and 3 more variables: issue <chr>, citedByCount <int>,
#> #   pageInfo <chr>

For reference section from an article:

europepmc::epmc_refs("28632490", limit = 200)
#> # A tibble: 169 x 19
#>    id     source citationType  title authorString journalAbbrevia… issue pubYear
#>    <chr>  <chr>  <chr>         <chr> <chr>        <chr>            <chr>   <int>
#>  1 12002… MED    JOURNAL ARTI… Tric… Adolfsson-E… Chemosphere      9-10     2002
#>  2 18795… MED    JOURNAL ARTI… In v… Ahn KC, Zha… Environ Health … 9        2008
#>  3 18556… MED    JOURNAL ARTI… Effe… Aiello AE, … Am J Public Hea… 8        2008
#>  4 17683… MED    JOURNAL ARTI… Cons… Aiello AE, … Clin Infect Dis  <NA>     2007
#>  5 15273… MED    JOURNAL ARTI… Rela… Aiello AE, … Antimicrob Agen… 8        2004
#>  6 18207… MED    JOURNAL ARTI… The … Allmyr M, H… Sci Total Envir… 1        2008
#>  7 17007… MED    JOURNAL ARTI… Tric… Allmyr M, A… Sci Total Envir… 1        2006
#>  8 26948… MED    JOURNAL ARTI… Pres… Alvarez-Riv… J Chromatogr A   <NA>     2016
#>  9 23192… MED    JOURNAL ARTI… Expo… Anderson SE… Toxicol Sci      1        2012
#> 10 25837… MED    JOURNAL ARTI… Obse… Vladar EK, … Methods Cell Bi… <NA>     2015
#> # … with 159 more rows, and 11 more variables: volume <chr>, pageInfo <chr>,
#> #   citedOrder <int>, match <chr>, essn <chr>, issn <chr>,
#> #   publicationTitle <chr>, publisherLoc <chr>, publisherName <chr>,
#> #   externalLink <chr>, doi <chr>
…
